<svg width="65" height="65" viewBox="0 0 65 65" fill="none" xmlns="http://www.w3.org/2000/svg">
<path fill-rule="evenodd" clip-rule="evenodd" d="M32.4999 35.3722L47.3117 50.1881L50.188 47.3159L35.372 32.5L50.188 17.6881L47.3158 14.8119L32.4999 29.6278L17.688 14.8119L14.8158 17.6881L29.6277 32.5L14.8158 47.3119L17.688 50.1881L32.4999 35.3722Z" fill="white"/>
</svg>
