<svg width="34" height="34" viewBox="0 0 34 34" fill="none" xmlns="http://www.w3.org/2000/svg">
<g clip-path="url(#clip0)">
<path d="M27.788 13.8349H21.6709V3.0631C21.6709 2.14418 20.9596 1.37842 20.106 1.37842H13.9888C13.0879 1.37842 12.3766 2.14418 12.3766 3.0631V13.8349H6.25941C5.45328 13.8349 5.16876 14.3964 5.78522 15.0601L15.9331 25.934C16.2176 26.2403 16.5969 26.3934 17.0237 26.3934C17.4505 26.3934 17.8773 26.2403 18.1618 25.934L28.2622 15.0601C28.8312 14.3964 28.6416 13.8349 27.788 13.8349ZM0 21.5436V33.1832C0 33.6937 0.237099 34 0.758717 34H33.1939C33.7155 34 34 33.6937 34 33.1832V21.5436C34 21.0331 33.6206 20.6757 33.1939 20.6757H30.1116C29.6848 20.6757 29.3054 21.0841 29.3054 21.5436V28.946H4.64714V21.5436C4.64714 21.0331 4.3152 20.6757 3.88842 20.6757H0.758717C0.331939 20.6757 0 21.0841 0 21.5436Z" fill="white"/>
</g>
<defs>
<clipPath id="clip0">
<rect width="34" height="34" fill="white"/>
</clipPath>
</defs>
</svg>
