<svg width="378" height="226" viewBox="0 0 378 226" fill="none" xmlns="http://www.w3.org/2000/svg">
<g clip-path="url(#clip0)">
<path d="M186.866 225.23C185.587 225.23 184.392 224.837 183.283 224.149L171.935 216.386C170.228 215.304 171.081 214.911 171.594 214.715C173.897 213.831 174.324 213.633 176.713 212.062C176.969 211.865 177.311 211.963 177.566 212.16L186.27 218.154C186.611 218.351 187.038 218.351 187.293 218.154L221.339 195.453C221.68 195.256 221.851 194.862 221.851 194.372V149.067C221.851 148.575 221.68 148.183 221.339 147.985L187.293 125.382C186.952 125.185 186.525 125.185 186.27 125.382L152.224 147.985C151.883 148.182 151.712 148.673 151.712 149.066V194.371C151.712 194.765 151.883 195.255 152.224 195.453L161.525 201.644C166.559 204.592 169.716 201.152 169.716 197.713V152.997C169.716 152.408 170.143 151.818 170.74 151.818H175.092C175.604 151.818 176.116 152.309 176.116 152.997V197.713C176.116 205.476 172.446 209.997 166.047 209.997C164.084 209.997 162.549 209.997 158.197 207.54L149.238 201.644C147.019 200.17 145.654 197.418 145.654 194.47V149.165C145.654 146.217 147.019 143.464 149.238 141.99L183.283 119.289C185.416 117.913 188.318 117.913 190.451 119.289L224.496 141.99C226.714 143.464 228.08 146.217 228.08 149.165V194.47C228.08 197.418 226.714 200.17 224.496 201.644L190.451 224.346C189.341 224.936 188.062 225.23 186.867 225.23H186.866ZM197.362 194.077C182.43 194.077 179.358 186.215 179.358 179.532C179.358 178.942 179.785 178.353 180.382 178.353H184.819C185.331 178.353 185.757 178.746 185.757 179.336C186.44 184.544 188.403 187.099 197.447 187.099C204.615 187.099 207.687 185.232 207.687 180.809C207.687 178.254 206.833 176.388 195.656 175.11C186.355 174.028 180.553 171.67 180.553 163.12C180.553 155.159 186.355 150.442 196.082 150.442C207.004 150.442 212.38 154.767 213.063 164.2C213.063 164.496 212.977 164.79 212.807 165.085C212.635 165.282 212.38 165.478 212.124 165.478H207.687C207.26 165.478 206.833 165.085 206.748 164.594C205.724 159.189 203.079 157.42 196.082 157.42C188.232 157.42 187.293 160.565 187.293 162.923C187.293 165.773 188.403 166.657 198.983 168.23C209.478 169.803 214.428 172.063 214.428 180.514C214.342 189.163 208.199 194.077 197.362 194.077Z" fill="#539E43"/>
<path d="M81.2316 48.0388C81.2316 46.2702 80.3781 44.5985 79.0131 43.7141L42.8343 19.7351C42.2363 19.3415 41.5542 19.145 40.872 19.0464H40.5302C39.848 19.0464 39.1651 19.3415 38.5678 19.7351L2.38907 43.7141C1.02325 44.5985 0.170532 46.2693 0.170532 48.0388L0.256173 112.507C0.256173 113.392 0.682899 114.276 1.36507 114.67C2.04798 115.161 2.9007 115.161 3.4987 114.67L25.0011 100.518C26.3662 99.6336 27.2197 97.9627 27.2197 96.1941V66.0231C27.2197 64.2544 28.0724 62.5835 29.4382 61.6992L38.5678 55.6058C39.2507 55.1143 40.0185 54.9171 40.7863 54.9171C41.5541 54.9171 42.322 55.1143 42.92 55.6058L52.0496 61.6992C53.4154 62.5835 54.2681 64.2536 54.2681 66.0231V96.1941C54.2681 97.9627 55.1215 99.6336 56.4866 100.518L77.9891 114.67C78.672 115.161 79.5247 115.161 80.2076 114.67C80.8905 114.276 81.3172 113.392 81.3172 112.507L81.2316 48.0388Z" fill="#333333"/>
<path d="M255.129 -40.7047C254.446 -41.0984 253.593 -41.0984 252.995 -40.7047C252.313 -40.2132 251.886 -39.4275 251.886 -38.5432V25.337C251.886 25.9262 251.631 26.5155 251.118 26.9092C250.607 27.2034 250.094 27.2034 249.583 26.9092L240.538 20.9145C239.875 20.4796 239.125 20.2509 238.362 20.2509C237.599 20.2509 236.849 20.4796 236.186 20.9145L200.007 44.9921C198.642 45.8764 197.788 47.5473 197.788 49.3159V97.3725C197.788 99.1412 198.642 100.813 200.007 101.697L236.186 125.775C236.849 126.21 237.599 126.438 238.362 126.438C239.125 126.438 239.875 126.21 240.538 125.775L276.717 101.697C278.082 100.813 278.935 99.1421 278.935 97.3725V-22.4254C278.935 -24.2927 278.082 -25.9628 276.717 -26.8479L255.129 -40.7047H255.129ZM251.801 81.5507C251.801 82.0422 251.631 82.435 251.289 82.6314L238.917 90.8863C238.744 90.9834 238.554 91.0339 238.362 91.0339C238.17 91.0339 237.98 90.9834 237.807 90.8863L225.435 82.6314C225.093 82.435 224.923 81.9435 224.923 81.5507V65.04C224.923 64.5486 225.093 64.1557 225.435 63.9593L237.807 55.7035C237.98 55.6064 238.17 55.556 238.362 55.556C238.554 55.556 238.744 55.6064 238.917 55.7035L251.289 63.9593C251.631 64.1549 251.801 64.6472 251.801 65.04V81.5507Z" fill="#333333"/>
<path d="M375.525 64.6474C376.891 63.763 377.659 62.0922 377.659 60.3227V48.6282C377.659 46.8596 376.805 45.1887 375.525 44.3044L339.603 20.3254C338.94 19.8907 338.19 19.6621 337.427 19.6621C336.664 19.6621 335.914 19.8907 335.251 20.3254L299.073 44.4021C297.707 45.2865 296.854 46.9574 296.854 48.7269V96.7835C296.854 98.5521 297.707 100.223 299.073 101.107L334.995 124.693C336.361 125.578 337.981 125.578 339.262 124.693L361.02 110.74C361.702 110.346 362.129 109.462 362.129 108.577C362.129 107.693 361.702 106.809 361.02 106.415L324.67 82.3374C323.988 81.8468 323.561 81.0602 323.561 80.1759V65.1397C323.561 64.2554 323.988 63.371 324.67 62.9774L336.019 55.5082C336.351 55.2674 336.736 55.1396 337.128 55.1396C337.521 55.1396 337.905 55.2674 338.238 55.5082L349.586 62.9774C350.269 63.4688 350.695 64.2545 350.695 65.1397V76.9328C350.695 77.8171 351.122 78.7014 351.804 79.0943C352.487 79.5858 353.34 79.5858 354.023 79.0943L375.525 64.6474V64.6474Z" fill="#333333"/>
<path d="M336.873 62.3869C336.999 62.2909 337.147 62.2397 337.299 62.2397C337.451 62.2397 337.599 62.2909 337.725 62.3869L344.637 67.0058C344.893 67.2014 345.064 67.4965 345.064 67.8902V77.128C345.064 77.5209 344.893 77.8159 344.637 78.0124L337.725 82.6313C337.599 82.7273 337.451 82.7785 337.299 82.7785C337.147 82.7785 336.999 82.7273 336.873 82.6313L329.961 78.0124C329.705 77.8159 329.534 77.5209 329.534 77.128V67.8902C329.534 67.4965 329.705 67.2014 329.961 67.0058L336.873 62.3869V62.3869Z" fill="#539E43"/>
<mask id="mask0" style="mask-type:alpha" maskUnits="userSpaceOnUse" x="99" y="19" width="81" height="107">
<path d="M141.729 20.5217C141.066 20.087 140.316 19.8584 139.553 19.8584C138.79 19.8584 138.04 20.087 137.377 20.5217L101.455 44.4012C100.089 45.2855 99.321 46.9564 99.321 48.725V96.5861C99.321 98.3547 100.174 100.026 101.455 100.91L137.377 124.791C138.04 125.226 138.79 125.454 139.553 125.454C140.316 125.454 141.066 125.226 141.729 124.791L177.652 100.91C179.017 100.026 179.785 98.3547 179.785 96.5861V48.7259C179.785 46.9572 178.931 45.2863 177.652 44.402L141.729 20.5217Z" fill="white"/>
</mask>
<g mask="url(#mask0)">
<path d="M141.729 20.5217C141.066 20.087 140.316 19.8584 139.553 19.8584C138.79 19.8584 138.04 20.087 137.377 20.5217L101.455 44.4012C100.089 45.2855 99.321 46.9564 99.321 48.725V96.5861C99.321 98.3547 100.174 100.026 101.455 100.91L137.377 124.791C138.04 125.226 138.79 125.454 139.553 125.454C140.316 125.454 141.066 125.226 141.729 124.791L177.652 100.91C179.017 100.026 179.785 98.3547 179.785 96.5861V48.7259C179.785 46.9572 178.931 45.2863 177.652 44.402L141.729 20.5217Z" fill="url(#paint0_linear)"/>
<path d="M177.737 44.4021L141.644 20.5218C141.289 20.3155 140.917 20.1508 140.534 20.0303L100.089 99.831C100.424 100.302 100.828 100.701 101.284 101.01L137.377 124.892C138.401 125.579 139.596 125.776 140.705 125.382L178.676 45.3859C178.42 44.9931 178.078 44.6972 177.737 44.4029V44.4021Z" fill="url(#paint1_linear)"/>
<path fill-rule="evenodd" clip-rule="evenodd" d="M177.822 100.911C178.846 100.223 179.614 99.0437 179.956 97.7665L140.363 19.9317C139.339 19.7353 138.229 19.8331 137.292 20.521L101.454 44.3044L140.107 125.48C140.669 125.374 141.215 125.176 141.728 124.891L177.822 100.912L177.822 100.911Z" fill="url(#paint2_linear)"/>
<path fill-rule="evenodd" clip-rule="evenodd" d="M177.822 100.911L141.814 124.792C141.306 125.09 140.758 125.289 140.193 125.381L140.876 126.856L180.809 100.224V99.6334L179.785 97.6675C179.614 99.0433 178.846 100.223 177.822 100.911V100.911Z" fill="url(#paint3_linear)"/>
<path fill-rule="evenodd" clip-rule="evenodd" d="M177.822 100.911L141.814 124.792C141.306 125.09 140.758 125.289 140.193 125.381L140.876 126.856L180.809 100.224V99.6334L179.785 97.6675C179.614 99.0433 178.846 100.223 177.822 100.911V100.911Z" fill="url(#paint4_linear)"/>
</g>
</g>
<defs>
<linearGradient id="paint0_linear" x1="154.188" y1="38.324" x2="106.45" y2="103.451" gradientUnits="userSpaceOnUse">
<stop stop-color="#41873F"/>
<stop offset="0.3288" stop-color="#418B3D"/>
<stop offset="0.6352" stop-color="#419637"/>
<stop offset="0.9319" stop-color="#3FA92D"/>
<stop offset="1" stop-color="#3FAE2A"/>
</linearGradient>
<linearGradient id="paint1_linear" x1="134.099" y1="78.2626" x2="238.572" y2="28.9809" gradientUnits="userSpaceOnUse">
<stop offset="0.1376" stop-color="#41873F"/>
<stop offset="0.4032" stop-color="#54A044"/>
<stop offset="0.7136" stop-color="#66B848"/>
<stop offset="0.9081" stop-color="#6CC04A"/>
</linearGradient>
<linearGradient id="paint2_linear" x1="98.0084" y1="72.658" x2="181.133" y2="72.658" gradientUnits="userSpaceOnUse">
<stop offset="0.09192" stop-color="#6CC04A"/>
<stop offset="0.2864" stop-color="#66B848"/>
<stop offset="0.5968" stop-color="#54A044"/>
<stop offset="0.8624" stop-color="#41873F"/>
</linearGradient>
<linearGradient id="paint3_linear" x1="98.009" y1="112.342" x2="181.132" y2="112.342" gradientUnits="userSpaceOnUse">
<stop offset="0.09192" stop-color="#6CC04A"/>
<stop offset="0.2864" stop-color="#66B848"/>
<stop offset="0.5968" stop-color="#54A044"/>
<stop offset="0.8624" stop-color="#41873F"/>
</linearGradient>
<linearGradient id="paint4_linear" x1="193.242" y1="36.0606" x2="165.625" y2="161.71" gradientUnits="userSpaceOnUse">
<stop stop-color="#41873F"/>
<stop offset="0.3288" stop-color="#418B3D"/>
<stop offset="0.6352" stop-color="#419637"/>
<stop offset="0.9319" stop-color="#3FA92D"/>
<stop offset="1" stop-color="#3FAE2A"/>
</linearGradient>
<clipPath id="clip0">
<rect width="378" height="267" fill="white" transform="translate(0 -41)"/>
</clipPath>
</defs>
</svg>
