<svg width="81" height="81" viewBox="0 0 81 81" fill="none" xmlns="http://www.w3.org/2000/svg">
<path d="M80.4931 40.5C80.4931 62.5914 62.5844 80.5 40.4931 80.5C18.4017 80.5 0.493059 62.5914 0.493059 40.5C0.493059 18.4086 18.4017 0.5 40.4931 0.5C62.5844 0.5 80.4931 18.4086 80.4931 40.5Z" fill="#0C8D86"/>
</svg>
