<svg width="37" height="37" viewBox="0 0 37 37" fill="none" xmlns="http://www.w3.org/2000/svg">
<path d="M32.0397 4.96027C31.8836 4.80496 31.6865 4.69743 31.4714 4.65031C31.2563 4.6032 31.0323 4.61848 30.8256 4.69434L5.3881 13.9443C5.16872 14.0275 4.97985 14.1755 4.84657 14.3686C4.71329 14.5617 4.64191 14.7908 4.64191 15.0254C4.64191 15.2601 4.71329 15.4891 4.84657 15.6822C4.97985 15.8753 5.16872 16.0233 5.3881 16.1065L15.3203 20.0725L22.6509 12.7187L24.2812 14.349L16.9159 21.7143L20.8934 31.6465C20.9791 31.8617 21.1274 32.0461 21.3191 32.176C21.5108 32.3059 21.7371 32.3752 21.9687 32.375C22.2024 32.3702 22.4291 32.2947 22.619 32.1584C22.8089 32.0222 22.9531 31.8316 23.0325 31.6118L32.2825 6.17434C32.3612 5.96977 32.3802 5.74702 32.3373 5.53207C32.2943 5.31711 32.1911 5.11881 32.0397 4.96027Z" fill="white"/>
</svg>
